// Jest Snapshot v1, https://goo.gl/fbAQLP

exports[`<FullScreenLoader /> should render component Style 1`] = `
<StyledComponent
  forwardedClass={
    Object {
      "$$typeof": Symbol(react.forward_ref),
      "attrs": Array [],
      "componentStyle": ComponentStyle {
        "componentId": "sc-bwzfXH",
        "isStatic": true,
        "rules": Array [
          "
  position: relative;
  display: block;
  margin: 10px;
  text-decoration: none;

  .search-result-item__expansion-panel {
    position: relative;
  }
",
        ],
      },
      "displayName": "Styled(Component)",
      "render": [Function],
      "styledComponentId": "sc-bwzfXH",
      "target": [Function],
      "toString": [Function],
      "warnTooManyClasses": [Function],
      "withComponent": [Function],
      Symbol(Symbol.hasInstance): [Function],
    }
  }
  forwardedRef={null}
/>
`;
